<?xml version="1.0" encoding="UTF-8" standalone="no"?>
<!-- Created with Inkscape (http://www.inkscape.org/) -->

<svg
   xmlns:dc="http://purl.org/dc/elements/1.1/"
   xmlns:cc="http://creativecommons.org/ns#"
   xmlns:rdf="http://www.w3.org/1999/02/22-rdf-syntax-ns#"
   xmlns:svg="http://www.w3.org/2000/svg"
   xmlns="http://www.w3.org/2000/svg"
   xmlns:sodipodi="http://sodipodi.sourceforge.net/DTD/sodipodi-0.dtd"
   xmlns:inkscape="http://www.inkscape.org/namespaces/inkscape"
   width="12cm"
   height="12cm"
   viewBox="0 0 425.19684 425.19684"
   id="svg2"
   version="1.1"
   inkscape:version="0.91 r13725"
   sodipodi:docname="purple.svg">
  <defs
     id="defs4" />
  <sodipodi:namedview
     id="base"
     pagecolor="#ffffff"
     bordercolor="#666666"
     borderopacity="1.0"
     inkscape:pageopacity="1"
     inkscape:pageshadow="2"
     inkscape:zoom="0.98994949"
     inkscape:cx="203.37536"
     inkscape:cy="251.65749"
     inkscape:document-units="cm"
     inkscape:current-layer="layer1"
     showgrid="false"
     units="cm"
     inkscape:window-width="1366"
     inkscape:window-height="696"
     inkscape:window-x="-4"
     inkscape:window-y="0"
     inkscape:window-maximized="1" />
  <metadata
     id="metadata7">
    <rdf:RDF>
      <cc:Work
         rdf:about="">
        <dc:format>image/svg+xml</dc:format>
        <dc:type
           rdf:resource="http://purl.org/dc/dcmitype/StillImage" />
        <dc:title></dc:title>
      </cc:Work>
    </rdf:RDF>
  </metadata>
  <g
     inkscape:label="Layer 1"
     inkscape:groupmode="layer"
     id="layer1"
     transform="translate(0,-627.16542)">
    <rect
       style="fill:#9c27b0;fill-opacity:1;stroke:none"
       id="rect4136"
       width="35.433071"
       height="35.433071"
       x="0"
       y="910.63" />
    <rect
       style="fill:#9c27b0;fill-opacity:1;stroke:none"
       id="rect4136-4"
       width="35.433071"
       height="35.433071"
       x="70.866142"
       y="910.63" />
    <rect
       style="fill:#9c27b0;fill-opacity:1;stroke:none"
       id="rect4136-6"
       width="35.433071"
       height="35.433071"
       x="35.433071"
       y="946.06305" />
    <rect
       style="fill:#9c27b0;fill-opacity:1;stroke:none"
       id="rect4136-4-6"
       width="35.433071"
       height="35.433071"
       x="106.29921"
       y="946.06305" />
    <rect
       style="fill:#9c27b0;fill-opacity:1;stroke:none"
       id="rect4136-66"
       width="35.433071"
       height="35.433071"
       x="0"
       y="981.49615" />
    <rect
       style="fill:#9c27b0;fill-opacity:1;stroke:none"
       id="rect4136-4-3"
       width="35.433071"
       height="35.433071"
       x="70.866142"
       y="981.49615" />
    <rect
       style="fill:#9c27b0;fill-opacity:1;stroke:none"
       id="rect4136-6-5"
       width="35.433071"
       height="35.433071"
       x="35.433075"
       y="1016.9292" />
    <rect
       style="fill:#9c27b0;fill-opacity:1;stroke:none"
       id="rect4136-4-6-6"
       width="35.433071"
       height="35.433071"
       x="106.2992"
       y="1016.9292" />
    <rect
       style="fill:#9c27b0;fill-opacity:1;stroke:none"
       id="rect4136-5"
       width="35.433071"
       height="35.433071"
       x="141.73228"
       y="910.63" />
    <rect
       style="fill:#9c27b0;fill-opacity:1;stroke:none"
       id="rect4136-4-0"
       width="35.433071"
       height="35.433071"
       x="212.59842"
       y="910.63" />
    <rect
       style="fill:#9c27b0;fill-opacity:1;stroke:none"
       id="rect4136-6-3"
       width="35.433071"
       height="35.433071"
       x="177.16537"
       y="946.06305" />
    <rect
       style="fill:#9c27b0;fill-opacity:1;stroke:none"
       id="rect4136-4-6-1"
       width="35.433071"
       height="35.433071"
       x="248.03149"
       y="946.06305" />
    <rect
       style="fill:#9c27b0;fill-opacity:1;stroke:none"
       id="rect4136-66-8"
       width="35.433071"
       height="35.433071"
       x="141.73228"
       y="981.49615" />
    <rect
       style="fill:#9c27b0;fill-opacity:1;stroke:none"
       id="rect4136-4-3-5"
       width="35.433071"
       height="35.433071"
       x="212.59842"
       y="981.49615" />
    <rect
       style="fill:#9c27b0;fill-opacity:1;stroke:none"
       id="rect4136-6-5-7"
       width="35.433071"
       height="35.433071"
       x="177.16537"
       y="1016.9292" />
    <rect
       style="fill:#9c27b0;fill-opacity:1;stroke:none"
       id="rect4136-4-6-6-7"
       width="35.433071"
       height="35.433071"
       x="248.03149"
       y="1016.9292" />
    <rect
       style="fill:#9c27b0;fill-opacity:1;stroke:none"
       id="rect4136-3"
       width="35.433071"
       height="35.433071"
       x="0"
       y="768.89771" />
    <rect
       style="fill:#9c27b0;fill-opacity:1;stroke:none"
       id="rect4136-4-8"
       width="35.433071"
       height="35.433071"
       x="70.866135"
       y="768.89771" />
    <rect
       style="fill:#9c27b0;fill-opacity:1;stroke:none"
       id="rect4136-6-6"
       width="35.433071"
       height="35.433071"
       x="35.433075"
       y="804.33075" />
    <rect
       style="fill:#9c27b0;fill-opacity:1;stroke:none"
       id="rect4136-4-6-8"
       width="35.433071"
       height="35.433071"
       x="106.29921"
       y="804.33075" />
    <rect
       style="fill:#9c27b0;fill-opacity:1;stroke:none"
       id="rect4136-66-0"
       width="35.433071"
       height="35.433071"
       x="0"
       y="839.76385" />
    <rect
       style="fill:#9c27b0;fill-opacity:1;stroke:none"
       id="rect4136-4-3-9"
       width="35.433071"
       height="35.433071"
       x="70.866135"
       y="839.76385" />
    <rect
       style="fill:#9c27b0;fill-opacity:1;stroke:none"
       id="rect4136-6-5-1"
       width="35.433071"
       height="35.433071"
       x="35.433075"
       y="875.1969" />
    <rect
       style="fill:#9c27b0;fill-opacity:1;stroke:none"
       id="rect4136-4-6-6-3"
       width="35.433071"
       height="35.433071"
       x="106.29919"
       y="875.1969" />
    <rect
       style="fill:#9c27b0;fill-opacity:1;stroke:none"
       id="rect4136-5-1"
       width="35.433071"
       height="35.433071"
       x="141.73228"
       y="768.89771" />
    <rect
       style="fill:#9c27b0;fill-opacity:1;stroke:none"
       id="rect4136-4-0-2"
       width="35.433071"
       height="35.433071"
       x="212.59842"
       y="768.89771" />
    <rect
       style="fill:#9c27b0;fill-opacity:1;stroke:none"
       id="rect4136-6-3-5"
       width="35.433071"
       height="35.433071"
       x="177.16537"
       y="804.33075" />
    <rect
       style="fill:#9c27b0;fill-opacity:1;stroke:none"
       id="rect4136-4-6-1-2"
       width="35.433071"
       height="35.433071"
       x="248.03149"
       y="804.33075" />
    <rect
       style="fill:#9c27b0;fill-opacity:1;stroke:none"
       id="rect4136-66-8-5"
       width="35.433071"
       height="35.433071"
       x="141.73228"
       y="839.76385" />
    <rect
       style="fill:#9c27b0;fill-opacity:1;stroke:none"
       id="rect4136-4-3-5-7"
       width="35.433071"
       height="35.433071"
       x="212.59842"
       y="839.76385" />
    <rect
       style="fill:#9c27b0;fill-opacity:1;stroke:none"
       id="rect4136-6-5-7-0"
       width="35.433071"
       height="35.433071"
       x="177.16537"
       y="875.1969" />
    <rect
       style="fill:#9c27b0;fill-opacity:1;stroke:none"
       id="rect4136-4-6-6-7-2"
       width="35.433071"
       height="35.433071"
       x="248.03149"
       y="875.1969" />
    <rect
       style="fill:#9c27b0;fill-opacity:1;stroke:none"
       id="rect4136-47"
       width="35.433071"
       height="35.433071"
       x="283.46457"
       y="910.63" />
    <rect
       style="fill:#9c27b0;fill-opacity:1;stroke:none"
       id="rect4136-4-1"
       width="35.433071"
       height="35.433071"
       x="354.33069"
       y="910.63" />
    <rect
       style="fill:#9c27b0;fill-opacity:1;stroke:none"
       id="rect4136-6-8"
       width="35.433071"
       height="35.433071"
       x="318.89764"
       y="946.06299" />
    <rect
       style="fill:#9c27b0;fill-opacity:1;stroke:none"
       id="rect4136-4-6-5"
       width="35.433071"
       height="35.433071"
       x="389.76376"
       y="946.06299" />
    <rect
       style="fill:#9c27b0;fill-opacity:1;stroke:none"
       id="rect4136-66-3"
       width="35.433071"
       height="35.433071"
       x="283.46457"
       y="981.49609" />
    <rect
       style="fill:#9c27b0;fill-opacity:1;stroke:none"
       id="rect4136-4-3-3"
       width="35.433071"
       height="35.433071"
       x="354.33069"
       y="981.49609" />
    <rect
       style="fill:#9c27b0;fill-opacity:1;stroke:none"
       id="rect4136-6-5-3"
       width="35.433071"
       height="35.433071"
       x="318.89764"
       y="1016.9292" />
    <rect
       style="fill:#9c27b0;fill-opacity:1;stroke:none"
       id="rect4136-4-6-6-34"
       width="35.433071"
       height="35.433071"
       x="389.76376"
       y="1016.9292" />
    <rect
       style="fill:#9c27b0;fill-opacity:1;stroke:none"
       id="rect4136-50"
       width="35.433071"
       height="35.433071"
       x="283.46457"
       y="768.89771" />
    <rect
       style="fill:#9c27b0;fill-opacity:1;stroke:none"
       id="rect4136-4-2"
       width="35.433071"
       height="35.433071"
       x="354.33072"
       y="768.89771" />
    <rect
       style="fill:#9c27b0;fill-opacity:1;stroke:none"
       id="rect4136-6-1"
       width="35.433071"
       height="35.433071"
       x="318.89764"
       y="804.33075" />
    <rect
       style="fill:#9c27b0;fill-opacity:1;stroke:none"
       id="rect4136-4-6-64"
       width="35.433071"
       height="35.433071"
       x="389.76376"
       y="804.33075" />
    <rect
       style="fill:#9c27b0;fill-opacity:1;stroke:none"
       id="rect4136-66-4"
       width="35.433071"
       height="35.433071"
       x="283.46457"
       y="839.76385" />
    <rect
       style="fill:#9c27b0;fill-opacity:1;stroke:none"
       id="rect4136-4-3-54"
       width="35.433071"
       height="35.433071"
       x="354.33072"
       y="839.76385" />
    <rect
       style="fill:#9c27b0;fill-opacity:1;stroke:none"
       id="rect4136-6-5-76"
       width="35.433071"
       height="35.433071"
       x="318.89764"
       y="875.1969" />
    <rect
       style="fill:#9c27b0;fill-opacity:1;stroke:none"
       id="rect4136-4-6-6-2"
       width="35.433071"
       height="35.433071"
       x="389.76376"
       y="875.1969" />
    <rect
       style="fill:#9c27b0;fill-opacity:1;stroke:none"
       id="rect4136-3-1"
       width="35.433071"
       height="35.433071"
       x="0"
       y="627.16547" />
    <rect
       style="fill:#9c27b0;fill-opacity:1;stroke:none"
       id="rect4136-4-8-4"
       width="35.433071"
       height="35.433071"
       x="70.86615"
       y="627.16547" />
    <rect
       style="fill:#9c27b0;fill-opacity:1;stroke:none"
       id="rect4136-6-6-2"
       width="35.433071"
       height="35.433071"
       x="35.433075"
       y="662.59851" />
    <rect
       style="fill:#9c27b0;fill-opacity:1;stroke:none"
       id="rect4136-4-6-8-3"
       width="35.433071"
       height="35.433071"
       x="106.29922"
       y="662.59851" />
    <rect
       style="fill:#9c27b0;fill-opacity:1;stroke:none"
       id="rect4136-66-0-1"
       width="35.433071"
       height="35.433071"
       x="0"
       y="698.03162" />
    <rect
       style="fill:#9c27b0;fill-opacity:1;stroke:none"
       id="rect4136-4-3-9-4"
       width="35.433071"
       height="35.433071"
       x="70.86615"
       y="698.03162" />
    <rect
       style="fill:#9c27b0;fill-opacity:1;stroke:none"
       id="rect4136-6-5-1-8"
       width="35.433071"
       height="35.433071"
       x="35.433075"
       y="733.46466" />
    <rect
       style="fill:#9c27b0;fill-opacity:1;stroke:none"
       id="rect4136-4-6-6-3-8"
       width="35.433071"
       height="35.433071"
       x="106.29919"
       y="733.46466" />
    <rect
       style="fill:#9c27b0;fill-opacity:1;stroke:none"
       id="rect4136-5-1-8"
       width="35.433071"
       height="35.433071"
       x="141.7323"
       y="627.16547" />
    <rect
       style="fill:#9c27b0;fill-opacity:1;stroke:none"
       id="rect4136-4-0-2-4"
       width="35.433071"
       height="35.433071"
       x="212.59845"
       y="627.16547" />
    <rect
       style="fill:#9c27b0;fill-opacity:1;stroke:none"
       id="rect4136-6-3-5-5"
       width="35.433071"
       height="35.433071"
       x="177.16541"
       y="662.59851" />
    <rect
       style="fill:#9c27b0;fill-opacity:1;stroke:none"
       id="rect4136-4-6-1-2-0"
       width="35.433071"
       height="35.433071"
       x="248.03149"
       y="662.59851" />
    <rect
       style="fill:#9c27b0;fill-opacity:1;stroke:none"
       id="rect4136-66-8-5-2"
       width="35.433071"
       height="35.433071"
       x="141.7323"
       y="698.03162" />
    <rect
       style="fill:#9c27b0;fill-opacity:1;stroke:none"
       id="rect4136-4-3-5-7-3"
       width="35.433071"
       height="35.433071"
       x="212.59845"
       y="698.03162" />
    <rect
       style="fill:#9c27b0;fill-opacity:1;stroke:none"
       id="rect4136-6-5-7-0-3"
       width="35.433071"
       height="35.433071"
       x="177.16541"
       y="733.46466" />
    <rect
       style="fill:#9c27b0;fill-opacity:1;stroke:none"
       id="rect4136-4-6-6-7-2-8"
       width="35.433071"
       height="35.433071"
       x="248.03149"
       y="733.46466" />
    <rect
       style="fill:#9c27b0;fill-opacity:1;stroke:none"
       id="rect4136-50-6"
       width="35.433071"
       height="35.433071"
       x="283.4646"
       y="627.16547" />
    <rect
       style="fill:#9c27b0;fill-opacity:1;stroke:none"
       id="rect4136-4-2-9"
       width="35.433071"
       height="35.433071"
       x="354.33075"
       y="627.16547" />
    <rect
       style="fill:#9c27b0;fill-opacity:1;stroke:none"
       id="rect4136-6-1-2"
       width="35.433071"
       height="35.433071"
       x="318.89764"
       y="662.59851" />
    <rect
       style="fill:#9c27b0;fill-opacity:1;stroke:none"
       id="rect4136-4-6-64-3"
       width="35.433071"
       height="35.433071"
       x="389.76379"
       y="662.59851" />
    <rect
       style="fill:#9c27b0;fill-opacity:1;stroke:none"
       id="rect4136-66-4-9"
       width="35.433071"
       height="35.433071"
       x="283.4646"
       y="698.03162" />
    <rect
       style="fill:#9c27b0;fill-opacity:1;stroke:none"
       id="rect4136-4-3-54-6"
       width="35.433071"
       height="35.433071"
       x="354.33075"
       y="698.03162" />
    <rect
       style="fill:#9c27b0;fill-opacity:1;stroke:none"
       id="rect4136-6-5-76-4"
       width="35.433071"
       height="35.433071"
       x="318.89764"
       y="733.46466" />
    <rect
       style="fill:#9c27b0;fill-opacity:1;stroke:none"
       id="rect4136-4-6-6-2-7"
       width="35.433071"
       height="35.433071"
       x="389.76379"
       y="733.46466" />
  </g>
</svg>
